<?xml version="1.0" encoding="UTF-8" standalone="no"?>
<svg
   height="100"
   id="svg8"
   version="1.1"
   viewBox="0 0 100 100"
   width="100"
   sodipodi:docname="icon-directory.svg"
   inkscape:version="1.4 (e7c3feb100, 2024-10-09)"
   xmlns:inkscape="http://www.inkscape.org/namespaces/inkscape"
   xmlns:sodipodi="http://sodipodi.sourceforge.net/DTD/sodipodi-0.dtd"
   xmlns="http://www.w3.org/2000/svg"
   xmlns:svg="http://www.w3.org/2000/svg"
   xmlns:rdf="http://www.w3.org/1999/02/22-rdf-syntax-ns#"
   xmlns:cc="http://creativecommons.org/ns#"
   xmlns:dc="http://purl.org/dc/elements/1.1/">
  <defs
     id="defs2" />
  <sodipodi:namedview
     bordercolor="#666666"
     borderlayer="false"
     borderopacity="1.0"
     id="base"
     pagecolor="#ffffff"
     showborder="true"
     showgrid="false"
     units="px"
     inkscape:current-layer="svg8"
     inkscape:cx="42.709743"
     inkscape:cy="73.579161"
     inkscape:document-units="px"
     inkscape:pagecheckerboard="true"
     inkscape:pageopacity="0.0"
     inkscape:pageshadow="2"
     inkscape:showpageshadow="true"
     inkscape:window-height="1263"
     inkscape:window-maximized="0"
     inkscape:window-width="1343"
     inkscape:window-x="26"
     inkscape:window-y="23"
     inkscape:zoom="5.912"
     inkscape:deskcolor="#d1d1d1" />
  <metadata
     id="metadata5">
    <rdf:RDF>
      <cc:Work
         rdf:about="">
        <dc:format>image/svg+xml</dc:format>
        <dc:type
           rdf:resource="http://purl.org/dc/dcmitype/StillImage" />
      </cc:Work>
    </rdf:RDF>
  </metadata>
  <path
     id="polygon4"
     style="fill:#666666;fill-rule:evenodd"
     d="M 100,91.67347 H 0 V 8.32653 h 22.632551 l 5.229376,8.741313 H 100 Z"
     sodipodi:nodetypes="ccccccc" />
  <path
     id="path4"
     style="fill:#999999;fill-rule:evenodd"
     d="M 0,91.67347 H 100 V 28.32653 H 33.36745 l -5.22938,6.74131 H 0 Z"
     sodipodi:nodetypes="ccccccc" />
</svg>
